^C:\USERS\משתמש\DESKTOP\C++\סנכרון ת'רדים  LESSON12\שיעורי בית\TARGIL1\TARGIL1\MAIN.CPP|C:\USERS\משתמש\DESKTOP\C++\סנכרון ת'רדים  LESSON12\שיעורי בית\TARGIL1\TARGIL1\THREADS.CPP
C:\USERS\משתמש\DESKTOP\C++\סנכרון ת'רדים  LESSON12\שיעורי בית\TARGIL1\TARGIL1\DEBUG\VC142.PDB
C:\USERS\משתמש\DESKTOP\C++\סנכרון ת'רדים  LESSON12\שיעורי בית\TARGIL1\TARGIL1\DEBUG\VC142.IDB
C:\USERS\משתמש\DESKTOP\C++\סנכרון ת'רדים  LESSON12\שיעורי בית\TARGIL1\TARGIL1\DEBUG\THREADS.OBJ
C:\USERS\משתמש\DESKTOP\C++\סנכרון ת'רדים  LESSON12\שיעורי בית\TARGIL1\TARGIL1\DEBUG\MAIN.OBJ
^C:\USERS\משתמש\DESKTOP\C++\סנכרון ת'רדים  LESSON12\שיעורי בית\TARGIL1\TARGIL1\MAIN.CPP
C:\USERS\משתמש\DESKTOP\C++\סנכרון ת'רדים  LESSON12\שיעורי בית\TARGIL1\TARGIL1\DEBUG\VC142.PDB
^C:\USERS\משתמש\DESKTOP\C++\סנכרון ת'רדים  LESSON12\שיעורי בית\TARGIL1\TARGIL1\THREADS.CPP
C:\USERS\משתמש\DESKTOP\C++\סנכרון ת'רדים  LESSON12\שיעורי בית\TARGIL1\TARGIL1\DEBUG\VC142.PDB
